…
mazes

## # A tibble: 381 x 12
##    Study.ID    CA   VIQ DX    Activity    Content Filler   REP   REV    FS
##    <chr>    <dbl> <dbl> <chr> <chr>         <dbl>  <dbl> <dbl> <dbl> <dbl>
##  1 CSLU-001  5.67   124 TD    Conversati…   24.0   31.0   2.00  5.00 17.0 
##  2 CSLU-001  5.67   124 TD    Picture De…    1.00   2.00  0     0     1.00
##  3 CSLU-001  5.67   124 TD    Play          21.0    6.00  3.00  8.00 10.0 
##  4 CSLU-001  5.67   124 TD    Wordless P…    8.00   2.00  0     4.00  4.00
##  5 CSLU-002  6.50   124 TD    Conversati…    3.00  10.0   3.00  0     0   
##  6 CSLU-002  6.50   124 TD    Picture De…    5.00   3.00  2.00  1.00  2.00
##  7 CSLU-002  6.50   124 TD    Play           8.00   8.00  3.00  2.00  3.00
##  8 CSLU-002  6.50   124 TD    Wordless P…    2.00   2.00  0     0     2.00
##  9 CSLU-007  7.50   108 TD    Conversati…   25.0   21.0   4.00  4.00 17.0 
## 10 CSLU-007  7.50   108 TD    Picture De…   10.0   13.0   0     2.00  8.00
## # ... with 371 more rows, and 2 more variables: Cued <dbl>, Not.Cued <dbl>
…
